DayNo,Cash
1/1/23,100
2/1/23,105
3/1/23,106
4/1/23,104
5/1/23,103
6/1/23,105
7/1/23,107
8/1/23,109
9/1/23,111
10/1/23,109
11/1/23,112
12/1/23,109
13/1/23,111
14/1/23,115
15/1/23,116
16/1/23,113
17/1/23,116
18/1/23,120
19/1/23,118
20/1/23,121